Using R to analyze the quarterly US COVID data | FlamingBytes
…
Deal with NA value
As you can see, in “overall_rate” column, there are few “NA” values, in this context it means 0, so we may want to convert it as 0 for future’s process.

We can do it like as below.

 > df1 <- df1 %>%
     mutate_at(c("overall_rate"), ~coalesce(.,0))

It means , we want to convert all NA to 0 in “overall_rate” column.

Now, let’s check the df1 again, we can see all NA has been changed to 0.

!+ > df1
 # A tibble: 28 × 3
    year_and_quarter cause_of_death overall_rate
    <chr>            <chr>                 <dbl>
  1 2019 Q1          All causes            910
  2 2019 Q1          COVID-19                0
  3 2019 Q2          All causes            851.
  4 2019 Q2          COVID-19                0
  5 2019 Q3          All causes            827.
  6 2019 Q3          COVID-19                0
  7 2019 Q4          All causes            891.
  8 2019 Q4          COVID-19                0
  9 2020 Q1          All causes            945.
 10 2020 Q1          COVID-19                8.2
 # … with 18 more rows
…
