Using R to analyze US COVID pandemic waves and peaks | FlamingBytes
…
 !> df
 # A tibble: 10,800 × 17
    data_as_of start_date end_d…¹ group year  month mmwr_…² week_…³ state covid…⁴
    <chr>      <chr>      <chr>   <chr> <chr> <dbl>   <dbl> <chr>   <chr>   <dbl>
  1 01/09/2023 2019-12-29 01/04/… By W… 2019…    NA       1 01/04/… Unit…       0
  2 01/09/2023 2020-01-05 01/11/… By W… 2020     NA       2 01/11/… Unit…       1
  3 01/09/2023 2020-01-12 01/18/… By W… 2020     NA       3 01/18/… Unit…       2
  4 01/09/2023 2020-01-19 01/25/… By W… 2020     NA       4 01/25/… Unit…       3
  5 01/09/2023 2020-01-26 02/01/… By W… 2020     NA       5 02/01/… Unit…       0
  6 01/09/2023 2020-02-02 02/08/… By W… 2020     NA       6 02/08/… Unit…       4
  7 01/09/2023 2020-02-09 02/15/… By W… 2020     NA       7 02/15/… Unit…       6
  8 01/09/2023 2020-02-16 02/22/… By W… 2020     NA       8 02/22/… Unit…       6
  9 01/09/2023 2020-02-23 02/29/… By W… 2020     NA       9 02/29/… Unit…       9
 10 01/09/2023 2020-03-01 03/07/… By W… 2020     NA      10 03/07/… Unit…      38
 # … with 10,790 more rows, 7 more variables: total_deaths <dbl>,
 #   percent_of_expected_deaths <dbl>, pneumonia_deaths <dbl>,
 #   pneumonia_and_covid_19_deaths <dbl>, influenza_deaths <dbl>,
 #   pneumonia_influenza_or_covid_19_deaths <dbl>, footnote <chr>, and
 #   abbreviated variable names ¹ end_date, ² mmwr_week, ³ week_ending_date,
 #   ⁴ covid_19_deaths
 # ℹ Use `print(n = ...)` to see more rows, and `colnames()` to see all variable names
…
